…
#plotting the results
aus_words %>%
  mutate(contribution = n * score) %>%
  arrange(desc(abs(contribution))) %>%
  head(30) %>%
  mutate(word2 = reorder(word2, contribution)) %>%
  ggplot(aes(word2, n * score, fill = n * score > 0)) +
  geom_bar(stat = "identity", show.legend = FALSE) +
  xlab("Words preceded by \"australis\"") +
  ylab("Sentiment score * number of occurrences") +
  coord_flip()
```

    ## # A tibble: 138,206 × 2
    ##     bigram     n
    ##      <chr> <int>
    ## 1     ed u 11094
    ## 2   u 00a0  5553
    ## 3   00a0 u  5547
    ## 4   u 00bd  5143
    ## 5  00bd ed  5038
    ## 6   u 00b8  3190
    ## 7   00b8 u  3163
    ## 8   u 008d  1487
    ## 9   u 00b2  1127
    ## 10  00b2 u  1120
    ## # ... with 138,196 more rows

    ## Source: local data frame [339 x 3]
    ## Groups: word1 [1]
    ## 
    ##        word1      word2     n
    ##        <chr>      <chr> <int>
    ## 1  australis  cosmetics   256
    ## 2  australis   products    56
    ## 3  australis essentials    33
    ## 4  australis         is    33
    ## 5  australis    product    29
    ## 6  australis          i    21
    ## 7  australis     makeup    20
    ## 8  australis       make    17
    ## 9  australis      fresh    15
    ## 10 australis        and    13
    ## # ... with 329 more rows
…
The second plot shows a distribution of 'love' reactions.

``` r
ggplot(australis_reactions, aes(x=australis_reactions$created_time, y=australis_reactions$love_count)) +
  geom_bar(stat = "identity") +
  labs(x = "created time", y = "love count") +
  theme_bw() +
  ggtitle("The distribution of love reactions")
```

The reactions do not match the sentiment in the comments. This can be a result of an incorrect classification of some words as mentioned earlier. Industry-specific lexicon could improve accuracy of the classification of words such as 'dark', 'matte', 'killer' or 'naughty' which usually have a negative connotation but in this context, they should be viewed differently. 'Matte' and 'dark' are some of the words that most significantly contribute to the negative sentiment in the comments. However, if they were classified as positive, the overall sentiment in the comments might match the reactions better. Moreover, text analysis does not perform well when it comes to interpreting short, less obvious and ambiguous messages that include sarcasm or humor. In cases like this, reactions can be used contextualize the results of text analysis and provide some clarification in situations where the sentiment analysis is not sufficient.

    ## Source: local data frame [595 x 3]
    ## Groups: index [142]
    ## 
    ##    index    word     n
    ##    <int>   <chr> <int>
    ## 1   1833    love   152
    ## 2   1889    love    47
    ## 3   1838    love    37
    ## 4   1843    love    35
    ## 5   1833 perfect    27
    ## 6   1833   cream    19
    ## 7   1983    good    12
    ## 8   1893 perfect    11
    ## 9   1995    good    11
    ## 10  1843   cream    10
    ## # ... with 585 more rows
…
#the distribution of wow reactions
ggplot(australis_reactions, aes(x=australis_reactions$created_time, y=australis_reactions$wow_count)) +
  geom_bar(stat = "identity") +
  labs(x = "created time", y = "wow count") +
  ggtitle("The distribution of wow reactions") +
  theme_bw()
```

Again, the sentiment in the comments does not match the 'wow' reactions.

    ## Source: local data frame [544 x 3]
    ## Groups: index [130]
    ## 
    ##    index    word     n
    ##    <int>   <chr> <int>
    ## 1   1833 perfect    27
    ## 2   1833   cream    19
    ## 3   1833    long    17
    ## 4   1911     top    17
    ## 5   1833    time    12
    ## 6   1983    good    12
    ## 7   1893 perfect    11
    ## 8   1995    good    11
    ## 9   1843   cream    10
    ## 10  1911  pretty    10
    ## # ... with 534 more rows
…
